{
	"description": "项目配置文件。",
	"setting": {
		"urlCheck": false,
		"es6": true,
		"postcss": true,
		"minified": true,
		"newFeature": true
	},
	"compileType": "miniprogram",
	"libVersion": "1.6.6",
	"appid": "wx63afabbf6a2036a9",
	"projectname": "order",
	"condition": {
		"search": {
			"current": -1,
			"list": []
		},
		"conversation": {
			"current": -1,
			"list": []
		},
		"miniprogram": {
			"current": 3,
			"list": [
				{
					"id": 0,
					"name": "merchants",
					"pathName": "pages/merchants/index",
					"query": ""
				},
				{
					"id": 1,
					"name": "menu",
					"pathName": "pages/menu/index",
					"query": ""
				},
				{
					"id": -1,
					"name": "order",
					"pathName": "pages/order/index",
					"query": ""
				},
				{
					"id": -1,
					"name": "profile",
					"pathName": "pages/profile/index",
					"query": ""
				},
				{
					"id": -1,
					"name": "balance",
					"pathName": "pages/balance/index",
					"query": ""
				},
				{
					"id": -1,
					"name": "points",
					"pathName": "pages/points/index",
					"query": ""
				},
				{
					"id": -1,
					"name": "coupons",
					"pathName": "pages/coupons/index",
					"query": ""
				},
				{
					"id": -1,
					"name": "my_orders",
					"pathName": "pages/my_orders/index",
					"query": ""
				},
				{
					"id": -1,
					"name": "order_detail",
					"pathName": "pages/order_detail/index",
					"query": ""
				}
			]
		}
	}
}